{
  "date-added": "2020/01/04",
  "description": "14K white and rose gold filigree pendant set with Aquamarine.",
  "featured": 1,
  "img": "img/products/aquapend.jpg",
  "price": 410.00,
  "metals": ["14K Rose Gold", "14K White Gold"],
  "jewel_types": ["aquamarine"],
  "tags": [
    "custom"
  ],
  "type": "necklace"
}