{
  "description": "Palladium and precious topaz with a 1/3 ct., I1 marquise cut diamond.",
  "price": 740.00,
  "metals": ["Palladium"],
  "jewel_types": ["diamond", "topaz"],
  "img": "img/products/pic5.jpg",
  "featured": 0,
  "date-added": "2020/01/04",
  "tags": [
    "custom",
    "portfolio"
  ],
  "type": "ring"
}