{
  "description": "14K white and rose gold swirl ring with two pear shape rubies and diamond.",
  "price": 590.00,
  "metals": ["14K White Gold", "14K Rose Gold"],
  "jewel_types": ["diamond", "ruby"],
  "img": "img/products/ruby_swirl.jpg",
  "featured": 0,
  "date-added": "2020/01/01",
  "tags": [
    "custom"
  ],
  "type": "ring"
}