{
  "description": "Sterling silver \"v\" channel ring set with one 8x6mm pear shaped mozanbique garnet and one 0.12 ct. round brilliant cut white diamond.",
  "price": 240.00,
  "metals": ["Sterling Silver"],
  "jewel_types": ["diamond", "garnet"],
  "img": "img/products/ss_mozambique.jpg",
  "featured": 0,
  "date-added": "2020/01/04",
  "tags": [
    "custom",
    "portfolio"
  ],
  "type": "ring"
}